…
``` r
nyc_transit_df = janitor::clean_names(nyc_transit_df)
```

Select the variables

``` r
select(nyc_transit_df, line:station_latitude,route1:route11,vending,entrance_type,entry,ada)
```

    ## # A tibble: 1,868 × 18
    ##    line  station_name station_latitude route1 route2 route3 route4 route5 route6
    ##    <chr> <chr>                   <dbl> <chr>  <chr>  <chr>  <chr>  <chr>  <chr> 
    ##  1 4 Av… 25th St                  40.7 R      <NA>   <NA>   <NA>   <NA>   <NA>  
    ##  2 4 Av… 25th St                  40.7 R      <NA>   <NA>   <NA>   <NA>   <NA>  
    ##  3 4 Av… 36th St                  40.7 N      R      <NA>   <NA>   <NA>   <NA>  
    ##  4 4 Av… 36th St                  40.7 N      R      <NA>   <NA>   <NA>   <NA>  
    ##  5 4 Av… 36th St                  40.7 N      R      <NA>   <NA>   <NA>   <NA>  
    ##  6 4 Av… 45th St                  40.6 R      <NA>   <NA>   <NA>   <NA>   <NA>  
    ##  7 4 Av… 45th St                  40.6 R      <NA>   <NA>   <NA>   <NA>   <NA>  
    ##  8 4 Av… 45th St                  40.6 R      <NA>   <NA>   <NA>   <NA>   <NA>  
    ##  9 4 Av… 45th St                  40.6 R      <NA>   <NA>   <NA>   <NA>   <NA>  
    ## 10 4 Av… 53rd St                  40.6 R      <NA>   <NA>   <NA>   <NA>   <NA>  
    ## # ℹ 1,858 more rows
    ## # ℹ 9 more variables: route7 <chr>, route8 <dbl>, route9 <dbl>, route10 <dbl>,
    ## #   route11 <dbl>, vending <chr>, entrance_type <chr>, entry <chr>, ada <lgl>

``` r
relocate(nyc_transit_df,line, entry)|>
  mutate(nyc_transit_df, entry = case_when(
    entry == "YES" ~ TRUE,
    entry == "NO" ~ FALSE
))
```

    ## # A tibble: 1,868 × 32
    ##    line    entry division station_name station_latitude station_longitude route1
    ##    <chr>   <lgl> <chr>    <chr>                   <dbl>             <dbl> <chr> 
    ##  1 4 Aven… TRUE  BMT      25th St                  40.7             -74.0 R     
    ##  2 4 Aven… TRUE  BMT      25th St                  40.7             -74.0 R     
    ##  3 4 Aven… TRUE  BMT      36th St                  40.7             -74.0 N     
    ##  4 4 Aven… TRUE  BMT      36th St                  40.7             -74.0 N     
    ##  5 4 Aven… TRUE  BMT      36th St                  40.7             -74.0 N     
    ##  6 4 Aven… TRUE  BMT      45th St                  40.6             -74.0 R     
    ##  7 4 Aven… TRUE  BMT      45th St                  40.6             -74.0 R     
    ##  8 4 Aven… TRUE  BMT      45th St                  40.6             -74.0 R     
    ##  9 4 Aven… TRUE  BMT      45th St                  40.6             -74.0 R     
    ## 10 4 Aven… TRUE  BMT      53rd St                  40.6             -74.0 R     
    ## # ℹ 1,858 more rows
    ## # ℹ 25 more variables: route2 <chr>, route3 <chr>, route4 <chr>, route5 <chr>,
    ## #   route6 <chr>, route7 <chr>, route8 <dbl>, route9 <dbl>, route10 <dbl>,
    ## #   route11 <dbl>, entrance_type <chr>, exit_only <chr>, vending <chr>,
    ## #   staffing <chr>, staff_hours <chr>, ada <lgl>, ada_notes <chr>,
    ## #   free_crossover <lgl>, north_south_street <chr>, east_west_street <chr>,
    ## #   corner <chr>, entrance_latitude <dbl>, entrance_longitude <dbl>, …

``` r
nyc_transit_df
```

    ## # A tibble: 1,868 × 32
    ##    division line   station_name station_latitude station_longitude route1 route2
    ##    <chr>    <chr>  <chr>                   <dbl>             <dbl> <chr>  <chr> 
    ##  1 BMT      4 Ave… 25th St                  40.7             -74.0 R      <NA>  
    ##  2 BMT      4 Ave… 25th St                  40.7             -74.0 R      <NA>  
    ##  3 BMT      4 Ave… 36th St                  40.7             -74.0 N      R     
    ##  4 BMT      4 Ave… 36th St                  40.7             -74.0 N      R     
    ##  5 BMT      4 Ave… 36th St                  40.7             -74.0 N      R     
    ##  6 BMT      4 Ave… 45th St                  40.6             -74.0 R      <NA>  
    ##  7 BMT      4 Ave… 45th St                  40.6             -74.0 R      <NA>  
    ##  8 BMT      4 Ave… 45th St                  40.6             -74.0 R      <NA>  
    ##  9 BMT      4 Ave… 45th St                  40.6             -74.0 R      <NA>  
    ## 10 BMT      4 Ave… 53rd St                  40.6             -74.0 R      <NA>  
    ## # ℹ 1,858 more rows
    ## # ℹ 25 more variables: route3 <chr>, route4 <chr>, route5 <chr>, route6 <chr>,
    ## #   route7 <chr>, route8 <dbl>, route9 <dbl>, route10 <dbl>, route11 <dbl>,
    ## #   entrance_type <chr>, entry <chr>, exit_only <chr>, vending <chr>,
    ## #   staffing <chr>, staff_hours <chr>, ada <lgl>, ada_notes <chr>,
    ## #   free_crossover <lgl>, north_south_street <chr>, east_west_street <chr>,
    ## #   corner <chr>, entrance_latitude <dbl>, entrance_longitude <dbl>, …

The cleaned dataset has 1868 and 32 columns. the variables include line,
station, name, station latitude / longitude, routes served, entry,
vending, entrance type, and ADA compliance. These data are tidy, meaning
each variable is in its column, and each row represents a distinct
subway entrance.

**How many distinct stations are there?**

``` r
distinct_stations_df = distinct(nyc_transit_df,line, station_name)
distinct_stations_df
```

    ## # A tibble: 465 × 2
    ##    line     station_name            
    ##    <chr>    <chr>                   
    ##  1 4 Avenue 25th St                 
    ##  2 4 Avenue 36th St                 
    ##  3 4 Avenue 45th St                 
    ##  4 4 Avenue 53rd St                 
    ##  5 4 Avenue 59th St                 
    ##  6 4 Avenue 77th St                 
    ##  7 4 Avenue 86th St                 
    ##  8 4 Avenue 95th St                 
    ##  9 4 Avenue 9th St                  
    ## 10 4 Avenue Atlantic Av-Barclays Ctr
    ## # ℹ 455 more rows
…
``` r
# upload other two sheets and clean them
prof_trash_wheel = read_xlsx("Meitong's data/trash_wheel.xlsx", sheet = "Professor Trash Wheel", skip = 1)
prof_trash_wheel= 
    janitor::clean_names(prof_trash_wheel)
drop_na(prof_trash_wheel)
```

    ## # A tibble: 113 × 13
    ##    dumpster month     year date                weight_tons volume_cubic_yards
    ##       <dbl> <chr>    <dbl> <dttm>                    <dbl>              <dbl>
    ##  1        1 January   2017 2017-01-02 00:00:00        1.79                 15
    ##  2        2 January   2017 2017-01-30 00:00:00        1.58                 15
    ##  3        3 February  2017 2017-02-26 00:00:00        2.32                 18
    ##  4        4 February  2017 2017-02-26 00:00:00        3.72                 15
    ##  5        5 February  2017 2017-02-28 00:00:00        1.45                 15
    ##  6        6 March     2017 2017-03-30 00:00:00        1.71                 15
    ##  7        7 April     2017 2017-04-01 00:00:00        1.82                 15
    ##  8        8 April     2017 2017-04-20 00:00:00        2.37                 15
    ##  9        9 May       2017 2017-05-10 00:00:00        2.64                 15
    ## 10       10 May       2017 2017-05-26 00:00:00        2.78                 15
    ## # ℹ 103 more rows
    ## # ℹ 7 more variables: plastic_bottles <dbl>, polystyrene <dbl>,
    ## #   cigarette_butts <dbl>, glass_bottles <dbl>, plastic_bags <dbl>,
    ## #   wrappers <dbl>, homes_powered <dbl>

``` r
prof_trash_wheel= prof_trash_wheel|>
  mutate(trash_wheel = "Professor Trash Wheel")
gwynnda_trash_wheel = read_xlsx("Meitong's data/trash_wheel.xlsx", sheet = "Gwynnda Trash Wheel", skip = 1)
gwynnda_trash_wheel= 
    janitor::clean_names(gwynnda_trash_wheel)
drop_na(gwynnda_trash_wheel)
```

    ## # A tibble: 103 × 12
    ##    dumpster month     year date                weight_tons volume_cubic_yards
    ##       <dbl> <chr>    <dbl> <dttm>                    <dbl>              <dbl>
    ##  1      117 November  2022 2022-11-03 00:00:00        3.06                 15
    ##  2      118 November  2022 2022-11-15 00:00:00        3                    15
    ##  3      119 November  2022 2022-11-19 00:00:00        2.42                 15
    ##  4      120 November  2022 2022-11-22 00:00:00        2.37                 15
    ##  5      121 November  2022 2022-11-30 00:00:00        2.91                 15
    ##  6      122 December  2022 2022-12-13 00:00:00        2.35                 14
    ##  7      123 December  2022 2022-12-17 00:00:00        2.8                  15
    ##  8      124 December  2022 2022-12-17 00:00:00        2.69                 15
    ##  9      125 December  2022 2022-12-19 00:00:00        2.27                 15
    ## 10      126 December  2022 2022-12-19 00:00:00        2.5                  15
    ## # ℹ 93 more rows
    ## # ℹ 6 more variables: plastic_bottles <dbl>, polystyrene <dbl>,
    ## #   cigarette_butts <dbl>, plastic_bags <dbl>, wrappers <dbl>,
    ## #   homes_powered <dbl>
…
``` r
#change all variable "Year" into numeric factor
mr_trash_wheel = mr_trash_wheel |>
  mutate(year = as.numeric(year))
prof_trash_wheel = prof_trash_wheel |>
  mutate(year = as.numeric(year))
gwynnda_trash_wheel = gwynnda_trash_wheel |>
  mutate(year = as.numeric(year))
# combine 3 data set
all_trash_wheel= bind_rows(mr_trash_wheel, prof_trash_wheel, gwynnda_trash_wheel)
all_trash_wheel
```

    ## # A tibble: 1,038 × 18
    ##    dumpster month  year date                weight_tons volume_cubic_yards
    ##       <dbl> <chr> <dbl> <dttm>                    <dbl>              <dbl>
    ##  1        1 May    2014 2014-05-16 00:00:00        4.31                 18
    ##  2        2 May    2014 2014-05-16 00:00:00        2.74                 13
    ##  3        3 May    2014 2014-05-16 00:00:00        3.45                 15
    ##  4        4 May    2014 2014-05-17 00:00:00        3.1                  15
    ##  5        5 May    2014 2014-05-17 00:00:00        4.06                 18
    ##  6        6 May    2014 2014-05-20 00:00:00        2.71                 13
    ##  7        7 May    2014 2014-05-21 00:00:00        1.91                  8
    ##  8        8 May    2014 2014-05-28 00:00:00        3.7                  16
    ##  9        9 June   2014 2014-06-05 00:00:00        2.52                 14
    ## 10       10 June   2014 2014-06-11 00:00:00        3.76                 18
    ## # ℹ 1,028 more rows
    ## # ℹ 12 more variables: plastic_bottles <dbl>, polystyrene <dbl>,
    ## #   cigarette_butts <dbl>, glass_bottles <dbl>, plastic_bags <dbl>,
    ## #   wrappers <dbl>, sports_balls <dbl>, homes_powered <dbl>, x15 <lgl>,
    ## #   x16 <lgl>, sport_balls <int>, trash_wheel <chr>
…
``` r
viewers_df= 
    janitor::clean_names(viewers_df)
```

``` r
#check if there is any non-matched variable
anti_join(bakes_df, bakers_df, by = c("series", "baker"))
```

    ## # A tibble: 548 × 5
    ##    series episode baker     signature_bake                          show_stopper
    ##     <dbl>   <dbl> <chr>     <chr>                                   <chr>       
    ##  1      1       1 Annetha   "Light Jamaican Black Cakewith Strawbe… Red, White …
    ##  2      1       1 David     "Chocolate Orange Cake"                 Black Fores…
    ##  3      1       1 Edd       "Caramel Cinnamon and Banana Cake"      N/A         
    ##  4      1       1 Jasminder "Fresh Mango and Passion Fruit Humming… N/A         
    ##  5      1       1 Jonathan  "Carrot Cake with Lime and Cream Chees… Three Tiere…
    ##  6      1       1 Lea       "Cranberry and Pistachio Cakewith Oran… Raspberries…
    ##  7      1       1 Louise    "Carrot and Orange Cake"                Never Fail …
    ##  8      1       1 Mark      "Sticky Marmalade Tea Loaf"             Heart-shape…
    ##  9      1       1 Miranda   "Triple Layered Brownie Meringue Cake\… Three Tiere…
    ## 10      1       1 Ruth      "Three Tiered Lemon Drizzle Cakewith F… Classic Cho…
    ## # ℹ 538 more rows
…
``` r
# build a new column
final_data = final_data |>
  mutate(star_baker_winner = ifelse(result == "STAR BAKER" | result == "WINNER", TRUE, FALSE))
# get the star baker and winner from series 5 to series 10
season_5_to_10 = final_data |>
  filter(series >= 5 & series <= 10 & star_baker_winner == TRUE)
star_baker_winner = season_5_to_10 |>
  select(series, episode, baker, result)
# download the table
print(star_baker_winner)
```

    ## # A tibble: 40 × 4
    ##    series episode baker   result    
    ##     <dbl>   <dbl> <chr>   <chr>     
    ##  1      5       1 Nancy   STAR BAKER
    ##  2      5       2 Richard STAR BAKER
    ##  3      5       3 Luis    STAR BAKER
    ##  4      5       4 Richard STAR BAKER
    ##  5      5       5 Kate    STAR BAKER
    ##  6      5       6 Chetna  STAR BAKER
    ##  7      5       7 Richard STAR BAKER
    ##  8      5       8 Richard STAR BAKER
    ##  9      5       9 Richard STAR BAKER
    ## 10      5      10 Nancy   WINNER    
    ## # ℹ 30 more rows
…
